[{
  "id": "RayTracer-2",
  "type": "cloudlightning.nodes.meta.RayTracer",
  "attributes": {
    "cloudlightning": {
      "num_cpus": "1",
      "is_numascale": "false",
      "has_phi": "false",
      "has_gpu": "false"
    }
  }
}, {
  "id": "RayTracer",
  "type": "cloudlightning.nodes.meta.RayTracer",
  "attributes": {
    "cloudlightning": {
      "num_cpus": "1",
      "is_numascale": "false",
      "has_phi": "false",
      "has_gpu": "false"
    }
  }
}]